API:

1) GET : http://localhost:3030/barber/details/97

Response:
{
    "id": 97,
    "name": "Vivek",
    "address": "Kolkata",
    "phoneNumber": "1234",
    "experience": "5",
    "rating": "4",
    "chargePerSession": "300"
}

2) GET : http://localhost:3030/barber/details

Response : 
[
    {
        "id": 97,
        "name": "Vivek",
        "address": "Kolkata",
        "phoneNumber": "1234",
        "experience": "5",
        "rating": "4",
        "chargePerSession": "300"
    },
    {
        "id": 518,
        "name": "Vivek",
        "address": "Kolkata",
        "phoneNumber": "1234",
        "experience": "5",
        "rating": "4",
        "chargePerSession": "300"
    }
]

3) POST : http://localhost:3030/barber/register

Body : 
{
	"name":"Joe",
	"address":"Almere",
	"phoneNumber":"1234",
	"experience":"5",
	"rating":"2",
	"chargePerSession":"300"
}

Response :
{
    "id": 681,
    "name": "Vivek",
    "address": "Kolkata",
    "phoneNumber": "1234",
    "experience": "5",
    "rating": "4",
    "chargePerSession": "300"
}

4) POST : http://localhost:3030/booking/barber/availability

Body : {
	"bookingDate":"10/31/2020",
	"barberId":97,
	"startTime":"9:30",
	"endTime":"10:30"
}

Response : true or false

5) GET : http://localhost:3030/booking/details

Response : 
[
    {
        "id": 33831,
        "bookingDate": "10/31/2020",
        "name": "Kesava",
        "phone": "1234",
        "barberId": 259,
        "barberName": "Vivek",
        "startTime": "9:30",
        "endTime": "10:30",
        "subject": null,
        "location": null,
        "comments": null,
        "IsBlock": true
    }
]

6) POST : http://localhost:3030/booking/create
Body : 
{
	"bookingDate":"10/31/2020",
	"name":"Kesava",
	"phone":"1234",
	"barberId":259,
	"barberName":"Vivek",
	"startTime":"9:30",
	"endTime":"10:30"
}

Response:
{
    "id": 33831,
    "bookingDate": "10/31/2020",
    "name": "Kesava",
    "phone": "1234",
    "barberId": 259,
    "barberName": "Vivek",
    "startTime": "9:30",
    "endTime": "10:30",
    "subject": null,
    "location": null,
    "comments": null,
    "IsBlock": true
}

7) GET : http://localhost:3030/booking/details/259

Response :
[
    {
        "id": 33831,
        "bookingDate": "10/31/2020",
        "name": "Kesava",
        "phone": "1234",
        "barberId": 259,
        "barberName": "Vivek",
        "startTime": "9:30",
        "endTime": "10:30",
        "subject": null,
        "location": null,
        "comments": null,
        "IsBlock": true

    {
        "id": 33832,
        "bookingDate": "10/31/2020",
        "name": "Kesava",
        "phone": "1234",
        "barberId": 259,
        "barberName": "Vivek",
        "startTime": "11:30",
        "endTime": "12:30",
        "subject": null,
        "location": null,
        "comments": null,
        "IsBlock": true
    }
]

8) GET : http://localhost:3030/booking/admin/details

[
    {
        "id": 33831,
        "bookingDate": "10/31/2020",
        "name": "Kesava",
        "phone": "1234",
        "barberId": 259,
        "barberName": "Vivek",
        "startTime": "9:30",
        "endTime": "10:30",
        "subject": null,
        "location": null,
        "comments": null,
        "IsBlock": false
    },
    {
        "id": 84125,
        "bookingDate": "10/31/2020",
        "name": "Kesava",
        "phone": "1234",
        "barberId": 259,
        "barberName": "Vivek",
        "startTime": "12:30",
        "endTime": "1:30",
        "subject": null,
        "location": null,
        "comments": null,
        "IsBlock": false
    }
]